C,Penalty,Score
0.01,l1,0.366666666667
0.01,l2,0.633333333333
0.02,l1,0.366666666667
0.02,l2,0.633333333333
0.03,l1,0.633333333333
0.03,l2,0.633333333333
0.04,l1,0.633333333333
0.04,l2,0.633333333333
0.05,l1,0.633333333333
0.05,l2,0.666666666667
0.06,l1,0.633333333333
0.06,l2,0.733333333333
0.07,l1,0.633333333333
0.07,l2,0.733333333333
0.08,l1,0.666666666667
0.08,l2,0.733333333333
0.09,l1,0.666666666667
0.09,l2,0.733333333333
0.1,l1,0.7
0.1,l2,0.733333333333
0.11,l1,0.733333333333
0.11,l2,0.766666666667
0.12,l1,0.733333333333
0.12,l2,0.833333333333
0.13,l1,0.766666666667
0.13,l2,0.833333333333
0.14,l1,0.8
0.14,l2,0.866666666667
0.15,l1,0.8
0.15,l2,0.866666666667
0.16,l1,0.8
0.16,l2,0.866666666667
0.17,l1,0.8
0.17,l2,0.866666666667
0.18,l1,0.833333333333
0.18,l2,0.866666666667
0.19,l1,0.833333333333
0.19,l2,0.866666666667
0.2,l1,0.833333333333
0.2,l2,0.866666666667
0.21,l1,0.833333333333
0.21,l2,0.866666666667
0.22,l1,0.833333333333
0.22,l2,0.866666666667
0.23,l1,0.833333333333
0.23,l2,0.866666666667
0.24,l1,0.833333333333
0.24,l2,0.866666666667
0.25,l1,0.866666666667
0.25,l2,0.9
0.26,l1,0.866666666667
0.26,l2,0.9
0.27,l1,0.866666666667
0.27,l2,0.933333333333
0.28,l1,0.866666666667
0.28,l2,0.933333333333
0.29,l1,0.866666666667
0.29,l2,0.933333333333
0.3,l1,0.866666666667
0.3,l2,0.933333333333
0.31,l1,0.866666666667
0.31,l2,0.933333333333
0.32,l1,0.9
0.32,l2,0.933333333333
0.33,l1,0.9
0.33,l2,0.933333333333
0.34,l1,0.9
0.34,l2,0.933333333333
0.35,l1,0.9
0.35,l2,0.933333333333
0.36,l1,0.9
0.36,l2,0.933333333333
0.37,l1,0.9
0.37,l2,0.933333333333
0.38,l1,0.9
0.38,l2,0.933333333333
0.39,l1,0.9
0.39,l2,0.933333333333
0.4,l1,0.9
0.4,l2,0.933333333333
0.41,l1,0.9
0.41,l2,0.933333333333
0.42,l1,0.9
0.42,l2,0.933333333333
0.43,l1,0.9
0.43,l2,0.933333333333
0.44,l1,0.9
0.44,l2,0.933333333333
0.45,l1,0.933333333333
0.45,l2,0.933333333333
0.46,l1,0.933333333333
0.46,l2,0.933333333333
0.47,l1,0.933333333333
0.47,l2,0.933333333333
0.48,l1,0.933333333333
0.48,l2,0.933333333333
0.49,l1,0.966666666667
0.49,l2,0.933333333333
0.5,l1,0.966666666667
0.5,l2,0.933333333333
0.51,l1,0.966666666667
0.51,l2,0.933333333333
0.52,l1,0.966666666667
0.52,l2,0.933333333333
0.53,l1,0.966666666667
0.53,l2,0.933333333333
0.54,l1,0.966666666667
0.54,l2,0.933333333333
0.55,l1,0.966666666667
0.55,l2,0.933333333333
0.56,l1,0.966666666667
0.56,l2,0.933333333333
0.57,l1,0.966666666667
0.57,l2,0.933333333333
0.58,l1,0.966666666667
0.58,l2,0.933333333333
0.59,l1,0.966666666667
0.59,l2,0.933333333333
0.6,l1,0.966666666667
0.6,l2,0.933333333333
0.61,l1,0.966666666667
0.61,l2,0.933333333333
0.62,l1,0.966666666667
0.62,l2,0.933333333333
0.63,l1,0.966666666667
0.63,l2,0.933333333333
0.64,l1,0.966666666667
0.64,l2,0.933333333333
0.65,l1,0.966666666667
0.65,l2,0.933333333333
0.66,l1,0.966666666667
0.66,l2,0.933333333333
0.67,l1,0.966666666667
0.67,l2,0.933333333333
0.68,l1,0.966666666667
0.68,l2,0.933333333333
0.69,l1,0.966666666667
0.69,l2,0.933333333333
0.7,l1,0.966666666667
0.7,l2,0.933333333333
0.71,l1,0.966666666667
0.71,l2,0.933333333333
0.72,l1,0.966666666667
0.72,l2,0.933333333333
0.73,l1,0.966666666667
0.73,l2,0.933333333333
0.74,l1,0.966666666667
0.74,l2,0.933333333333
0.75,l1,0.966666666667
0.75,l2,0.933333333333
0.76,l1,0.966666666667
0.76,l2,0.933333333333
0.77,l1,0.966666666667
0.77,l2,0.933333333333
0.78,l1,0.966666666667
0.78,l2,0.933333333333
0.79,l1,0.966666666667
0.79,l2,0.933333333333
0.8,l1,0.966666666667
0.8,l2,0.933333333333
0.81,l1,0.966666666667
0.81,l2,0.933333333333
0.82,l1,0.966666666667
0.82,l2,0.933333333333
0.83,l1,0.966666666667
0.83,l2,0.933333333333
0.84,l1,0.966666666667
0.84,l2,0.933333333333
0.85,l1,0.966666666667
0.85,l2,0.933333333333
0.86,l1,0.966666666667
0.86,l2,0.966666666667
0.87,l1,0.966666666667
0.87,l2,0.966666666667
0.88,l1,0.966666666667
0.88,l2,0.966666666667
0.89,l1,0.966666666667
0.89,l2,0.966666666667
0.9,l1,0.966666666667
0.9,l2,0.966666666667
0.91,l1,0.966666666667
0.91,l2,0.966666666667
0.92,l1,0.966666666667
0.92,l2,0.966666666667
0.93,l1,0.966666666667
0.93,l2,0.966666666667
0.94,l1,0.966666666667
0.94,l2,0.966666666667
0.95,l1,0.966666666667
0.95,l2,0.966666666667
0.96,l1,0.966666666667
0.96,l2,0.966666666667
0.97,l1,0.966666666667
0.97,l2,0.966666666667
0.98,l1,0.966666666667
0.98,l2,0.966666666667
0.99,l1,0.966666666667
0.99,l2,0.966666666667
