C,Penalty,Score
7.01,l1,0.933333333333
7.01,l2,0.933333333333
7.02,l1,0.933333333333
7.02,l2,0.933333333333
7.03,l1,0.933333333333
7.03,l2,0.933333333333
7.04,l1,0.933333333333
7.04,l2,0.933333333333
7.05,l1,0.933333333333
7.05,l2,0.933333333333
7.06,l1,0.933333333333
7.06,l2,0.933333333333
7.07,l1,0.933333333333
7.07,l2,0.933333333333
7.08,l1,0.933333333333
7.08,l2,0.933333333333
7.09,l1,0.933333333333
7.09,l2,0.933333333333
7.1,l1,0.933333333333
7.1,l2,0.933333333333
7.11,l1,0.933333333333
7.11,l2,0.933333333333
7.12,l1,0.933333333333
7.12,l2,0.933333333333
7.13,l1,0.933333333333
7.13,l2,0.933333333333
7.14,l1,0.933333333333
7.14,l2,0.933333333333
7.15,l1,0.933333333333
7.15,l2,0.933333333333
7.16,l1,0.933333333333
7.16,l2,0.933333333333
7.17,l1,0.933333333333
7.17,l2,0.933333333333
7.18,l1,0.933333333333
7.18,l2,0.933333333333
7.19,l1,0.933333333333
7.19,l2,0.933333333333
7.2,l1,0.933333333333
7.2,l2,0.933333333333
7.21,l1,0.933333333333
7.21,l2,0.933333333333
7.22,l1,0.933333333333
7.22,l2,0.933333333333
7.23,l1,0.933333333333
7.23,l2,0.933333333333
7.24,l1,0.933333333333
7.24,l2,0.933333333333
7.25,l1,0.933333333333
7.25,l2,0.933333333333
7.26,l1,0.933333333333
7.26,l2,0.933333333333
7.27,l1,0.933333333333
7.27,l2,0.933333333333
7.28,l1,0.933333333333
7.28,l2,0.933333333333
7.29,l1,0.933333333333
7.29,l2,0.933333333333
7.3,l1,0.933333333333
7.3,l2,0.933333333333
7.31,l1,0.933333333333
7.31,l2,0.933333333333
7.32,l1,0.933333333333
7.32,l2,0.933333333333
7.33,l1,0.933333333333
7.33,l2,0.933333333333
7.34,l1,0.933333333333
7.34,l2,0.933333333333
7.35,l1,0.933333333333
7.35,l2,0.933333333333
7.36,l1,0.933333333333
7.36,l2,0.933333333333
7.37,l1,0.933333333333
7.37,l2,0.933333333333
7.38,l1,0.933333333333
7.38,l2,0.933333333333
7.39,l1,0.933333333333
7.39,l2,0.933333333333
7.4,l1,0.933333333333
7.4,l2,0.933333333333
7.41,l1,0.933333333333
7.41,l2,0.933333333333
7.42,l1,0.933333333333
7.42,l2,0.933333333333
7.43,l1,0.933333333333
7.43,l2,0.933333333333
7.44,l1,0.933333333333
7.44,l2,0.933333333333
7.45,l1,0.933333333333
7.45,l2,0.933333333333
7.46,l1,0.933333333333
7.46,l2,0.933333333333
7.47,l1,0.933333333333
7.47,l2,0.933333333333
7.48,l1,0.933333333333
7.48,l2,0.933333333333
7.49,l1,0.933333333333
7.49,l2,0.933333333333
7.5,l1,0.933333333333
7.5,l2,0.933333333333
7.51,l1,0.933333333333
7.51,l2,0.933333333333
7.52,l1,0.933333333333
7.52,l2,0.933333333333
7.53,l1,0.933333333333
7.53,l2,0.933333333333
7.54,l1,0.933333333333
7.54,l2,0.933333333333
7.55,l1,0.933333333333
7.55,l2,0.933333333333
7.56,l1,0.933333333333
7.56,l2,0.933333333333
7.57,l1,0.933333333333
7.57,l2,0.933333333333
7.58,l1,0.933333333333
7.58,l2,0.933333333333
7.59,l1,0.933333333333
7.59,l2,0.933333333333
7.6,l1,0.933333333333
7.6,l2,0.933333333333
7.61,l1,0.933333333333
7.61,l2,0.933333333333
7.62,l1,0.933333333333
7.62,l2,0.933333333333
7.63,l1,0.933333333333
7.63,l2,0.933333333333
7.64,l1,0.933333333333
7.64,l2,0.933333333333
7.65,l1,0.933333333333
7.65,l2,0.933333333333
7.66,l1,0.933333333333
7.66,l2,0.933333333333
7.67,l1,0.933333333333
7.67,l2,0.933333333333
7.68,l1,0.933333333333
7.68,l2,0.933333333333
7.69,l1,0.933333333333
7.69,l2,0.933333333333
7.7,l1,0.933333333333
7.7,l2,0.933333333333
7.71,l1,0.933333333333
7.71,l2,0.933333333333
7.72,l1,0.933333333333
7.72,l2,0.933333333333
7.73,l1,0.933333333333
7.73,l2,0.933333333333
7.74,l1,0.933333333333
7.74,l2,0.933333333333
7.75,l1,0.933333333333
7.75,l2,0.933333333333
7.76,l1,0.933333333333
7.76,l2,0.933333333333
7.77,l1,0.933333333333
7.77,l2,0.933333333333
7.78,l1,0.933333333333
7.78,l2,0.933333333333
7.79,l1,0.933333333333
7.79,l2,0.933333333333
7.8,l1,0.933333333333
7.8,l2,0.933333333333
7.81,l1,0.933333333333
7.81,l2,0.933333333333
7.82,l1,0.933333333333
7.82,l2,0.933333333333
7.83,l1,0.933333333333
7.83,l2,0.933333333333
7.84,l1,0.933333333333
7.84,l2,0.933333333333
7.85,l1,0.933333333333
7.85,l2,0.933333333333
7.86,l1,0.933333333333
7.86,l2,0.933333333333
7.87,l1,0.933333333333
7.87,l2,0.933333333333
7.88,l1,0.933333333333
7.88,l2,0.933333333333
7.89,l1,0.933333333333
7.89,l2,0.933333333333
7.9,l1,0.933333333333
7.9,l2,0.933333333333
7.91,l1,0.933333333333
7.91,l2,0.933333333333
7.92,l1,0.933333333333
7.92,l2,0.933333333333
7.93,l1,0.933333333333
7.93,l2,0.933333333333
7.94,l1,0.933333333333
7.94,l2,0.933333333333
7.95,l1,0.933333333333
7.95,l2,0.933333333333
7.96,l1,0.933333333333
7.96,l2,0.933333333333
7.97,l1,0.933333333333
7.97,l2,0.933333333333
7.98,l1,0.933333333333
7.98,l2,0.933333333333
7.99,l1,0.933333333333
7.99,l2,0.933333333333
8.0,l1,0.933333333333
8.0,l2,0.933333333333
